<?xml version="1.0" encoding="UTF-8" standalone="no"?>
<svg
   xmlns:dc="http://purl.org/dc/elements/1.1/"
   xmlns:cc="http://creativecommons.org/ns#"
   xmlns:rdf="http://www.w3.org/1999/02/22-rdf-syntax-ns#"
   xmlns:svg="http://www.w3.org/2000/svg"
   xmlns="http://www.w3.org/2000/svg"
   xmlns:sodipodi="http://sodipodi.sourceforge.net/DTD/sodipodi-0.dtd"
   xmlns:inkscape="http://www.inkscape.org/namespaces/inkscape"
   width="210mm"
   height="297mm"
   viewBox="0 0 210 297"
   version="1.1"
   id="svg8"
   inkscape:version="1.0.2-2 (e86c870879, 2021-01-15)"
   sodipodi:docname="mini_computer.svg">
  <defs
     id="defs2" />
  <sodipodi:namedview
     id="base"
     pagecolor="#ffffff"
     bordercolor="#666666"
     borderopacity="1.0"
     inkscape:pageopacity="0.0"
     inkscape:pageshadow="2"
     inkscape:zoom="0.7"
     inkscape:cx="280.85271"
     inkscape:cy="431.26648"
     inkscape:document-units="mm"
     inkscape:current-layer="layer1"
     inkscape:document-rotation="0"
     showgrid="true"
     inkscape:window-width="1920"
     inkscape:window-height="1017"
     inkscape:window-x="-8"
     inkscape:window-y="-8"
     inkscape:window-maximized="1"
     inkscape:snap-bbox="true"
     inkscape:snap-bbox-midpoints="true">
    <inkscape:grid
       type="xygrid"
       id="grid833" />
  </sodipodi:namedview>
  <metadata
     id="metadata5">
    <rdf:RDF>
      <cc:Work
         rdf:about="">
        <dc:format>image/svg+xml</dc:format>
        <dc:type
           rdf:resource="http://purl.org/dc/dcmitype/StillImage" />
        <dc:title />
      </cc:Work>
    </rdf:RDF>
  </metadata>
  <g
     inkscape:groupmode="layer"
     id="layer2"
     inkscape:label="Stripeboard"
     sodipodi:insensitive="true"
     style="display:inline">
    <rect
       style="fill:#55ff99;stroke-width:0.259637;stroke-linecap:square;stroke-linejoin:round"
       id="rect1029"
       width="137.58333"
       height="211.66666"
       x="37.041668"
       y="26.458332" />
  </g>
  <g
     inkscape:label="Elements"
     inkscape:groupmode="layer"
     id="layer1">
    <g
       id="g1353"
       transform="translate(29.104151,3.9687495)">
      <rect
         style="fill:#000000;fill-opacity:1;stroke:none;stroke-width:0.264583;stroke-linecap:square;stroke-linejoin:round"
         id="rect857"
         width="42.333332"
         height="15.875"
         x="54.239613"
         y="93.927071" />
      <g
         id="g937"
         transform="translate(-68.791652,3.9687607)">
        <rect
           style="fill:#e8f74c;fill-opacity:1;stroke:none;stroke-width:0.374177;stroke-linecap:square;stroke-linejoin:round"
           id="rect859"
           width="2.6458282"
           height="3.96875"
           x="124.35416"
           y="100.54166" />
        <rect
           style="fill:#e8f74c;fill-opacity:1;stroke:none;stroke-width:0.374176;stroke-linecap:square;stroke-linejoin:round"
           id="rect859-3"
           width="2.645818"
           height="3.96875"
           x="129.64586"
           y="100.54166" />
        <rect
           style="fill:#e8f74c;fill-opacity:1;stroke:none;stroke-width:0.374177;stroke-linecap:square;stroke-linejoin:round"
           id="rect859-9"
           width="2.6458282"
           height="3.96875"
           x="134.9375"
           y="100.54166" />
        <rect
           style="fill:#e8f74c;fill-opacity:1;stroke:none;stroke-width:0.374176;stroke-linecap:square;stroke-linejoin:round"
           id="rect859-3-8"
           width="2.645818"
           height="3.96875"
           x="140.2292"
           y="100.54166" />
        <rect
           style="fill:#e8f74c;fill-opacity:1;stroke:none;stroke-width:0.374177;stroke-linecap:square;stroke-linejoin:round"
           id="rect859-0"
           width="2.6458282"
           height="3.96875"
           x="145.52084"
           y="100.54166" />
        <rect
           style="fill:#e8f74c;fill-opacity:1;stroke:none;stroke-width:0.374176;stroke-linecap:square;stroke-linejoin:round"
           id="rect859-3-7"
           width="2.645818"
           height="3.96875"
           x="150.81255"
           y="100.54166" />
        <rect
           style="fill:#e8f74c;fill-opacity:1;stroke:none;stroke-width:0.374177;stroke-linecap:square;stroke-linejoin:round"
           id="rect859-7"
           width="2.6458282"
           height="3.96875"
           x="156.10417"
           y="100.54166" />
        <rect
           style="fill:#e8f74c;fill-opacity:1;stroke:none;stroke-width:0.374176;stroke-linecap:square;stroke-linejoin:round"
           id="rect859-3-0"
           width="2.645818"
           height="3.96875"
           x="161.39587"
           y="100.54166" />
      </g>
      <g
         id="g937-2"
         transform="translate(-68.791682,-5.2916565)">
        <rect
           style="fill:#e8f74c;fill-opacity:1;stroke:none;stroke-width:0.374177;stroke-linecap:square;stroke-linejoin:round"
           id="rect859-6"
           width="2.6458282"
           height="3.96875"
           x="124.35416"
           y="100.54166" />
        <rect
           style="fill:#e8f74c;fill-opacity:1;stroke:none;stroke-width:0.374176;stroke-linecap:square;stroke-linejoin:round"
           id="rect859-3-3"
           width="2.645818"
           height="3.96875"
           x="129.64586"
           y="100.54166" />
        <rect
           style="fill:#e8f74c;fill-opacity:1;stroke:none;stroke-width:0.374177;stroke-linecap:square;stroke-linejoin:round"
           id="rect859-9-1"
           width="2.6458282"
           height="3.96875"
           x="134.9375"
           y="100.54166" />
        <rect
           style="fill:#e8f74c;fill-opacity:1;stroke:none;stroke-width:0.374176;stroke-linecap:square;stroke-linejoin:round"
           id="rect859-3-8-1"
           width="2.645818"
           height="3.96875"
           x="140.2292"
           y="100.54166" />
        <rect
           style="fill:#e8f74c;fill-opacity:1;stroke:none;stroke-width:0.374177;stroke-linecap:square;stroke-linejoin:round"
           id="rect859-0-6"
           width="2.6458282"
           height="3.96875"
           x="145.52084"
           y="100.54166" />
        <rect
           style="fill:#e8f74c;fill-opacity:1;stroke:none;stroke-width:0.374176;stroke-linecap:square;stroke-linejoin:round"
           id="rect859-3-7-3"
           width="2.645818"
           height="3.96875"
           x="150.81255"
           y="100.54166" />
        <rect
           style="fill:#e8f74c;fill-opacity:1;stroke:none;stroke-width:0.374177;stroke-linecap:square;stroke-linejoin:round"
           id="rect859-7-1"
           width="2.6458282"
           height="3.96875"
           x="156.10417"
           y="100.54166" />
        <rect
           style="fill:#e8f74c;fill-opacity:1;stroke:none;stroke-width:0.374176;stroke-linecap:square;stroke-linejoin:round"
           id="rect859-3-0-7"
           width="2.645818"
           height="3.96875"
           x="161.39587"
           y="100.54166" />
      </g>
      <rect
         style="fill:#ffffff;fill-opacity:1;stroke:none;stroke-width:0.216031;stroke-linecap:square;stroke-linejoin:round"
         id="rect1003"
         width="31.750002"
         height="2.6458333"
         x="59.531277"
         y="100.54166" />
      <rect
         style="fill:#ffffff;fill-opacity:1;stroke:none;stroke-width:0.0440976;stroke-linecap:square;stroke-linejoin:round"
         id="rect1003-3"
         width="1.3229436"
         height="2.6458333"
         x="54.239582"
         y="100.54167" />
    </g>
    <g
       id="g2119">
      <g
         id="g1419"
         transform="translate(1.3229176,43.65625)">
        <rect
           style="fill:#ff0000;fill-opacity:1;stroke:none;stroke-width:0.251824;stroke-linecap:square;stroke-linejoin:round"
           id="rect1080"
           width="58.208328"
           height="18.520836"
           x="39.6875"
           y="127" />
        <g
           id="g1114">
          <rect
             style="fill:#b3b3b3;fill-opacity:1;stroke:none;stroke-width:0.264583;stroke-linecap:square;stroke-linejoin:round"
             id="rect1082"
             width="3.96875"
             height="10.583333"
             x="43.65625"
             y="130.96875" />
          <g
             id="g1108">
            <rect
               style="fill:#cccccc;fill-opacity:1;stroke:none;stroke-width:0.162023;stroke-linecap:square;stroke-linejoin:round"
               id="rect1082-4"
               width="3.96875"
               height="3.9687548"
               x="43.65625"
               y="137.58333" />
            <circle
               style="fill:#e6e6e6;fill-opacity:1;stroke:none;stroke-width:0.264583;stroke-linecap:square;stroke-linejoin:round"
               id="path1104"
               cx="45.640625"
               cy="139.5677"
               r="1.3229166" />
          </g>
        </g>
        <g
           id="g1114-2"
           transform="translate(6.6145833)">
          <rect
             style="fill:#b3b3b3;fill-opacity:1;stroke:none;stroke-width:0.264583;stroke-linecap:square;stroke-linejoin:round"
             id="rect1082-7"
             width="3.96875"
             height="10.583333"
             x="43.65625"
             y="130.96875" />
          <g
             id="g1108-9">
            <rect
               style="fill:#cccccc;fill-opacity:1;stroke:none;stroke-width:0.162023;stroke-linecap:square;stroke-linejoin:round"
               id="rect1082-4-8"
               width="3.96875"
               height="3.9687548"
               x="43.65625"
               y="137.58333" />
            <circle
               style="fill:#e6e6e6;fill-opacity:1;stroke:none;stroke-width:0.264583;stroke-linecap:square;stroke-linejoin:round"
               id="path1104-2"
               cx="45.640625"
               cy="139.5677"
               r="1.3229166" />
          </g>
        </g>
        <g
           id="g1114-2-1"
           transform="translate(13.229167)">
          <rect
             style="fill:#b3b3b3;fill-opacity:1;stroke:none;stroke-width:0.264583;stroke-linecap:square;stroke-linejoin:round"
             id="rect1082-7-7"
             width="3.96875"
             height="10.583333"
             x="43.65625"
             y="130.96875" />
          <g
             id="g1108-9-0">
            <rect
               style="fill:#cccccc;fill-opacity:1;stroke:none;stroke-width:0.162023;stroke-linecap:square;stroke-linejoin:round"
               id="rect1082-4-8-2"
               width="3.96875"
               height="3.9687548"
               x="43.65625"
               y="137.58333" />
            <circle
               style="fill:#e6e6e6;fill-opacity:1;stroke:none;stroke-width:0.264583;stroke-linecap:square;stroke-linejoin:round"
               id="path1104-2-1"
               cx="45.640625"
               cy="139.5677"
               r="1.3229166" />
          </g>
        </g>
        <g
           id="g1114-2-0"
           transform="translate(19.84375)">
          <rect
             style="fill:#b3b3b3;fill-opacity:1;stroke:none;stroke-width:0.264583;stroke-linecap:square;stroke-linejoin:round"
             id="rect1082-7-4"
             width="3.96875"
             height="10.583333"
             x="43.65625"
             y="130.96875" />
          <g
             id="g1108-9-05">
            <rect
               style="fill:#cccccc;fill-opacity:1;stroke:none;stroke-width:0.162023;stroke-linecap:square;stroke-linejoin:round"
               id="rect1082-4-8-4"
               width="3.96875"
               height="3.9687548"
               x="43.65625"
               y="137.58333" />
            <circle
               style="fill:#e6e6e6;fill-opacity:1;stroke:none;stroke-width:0.264583;stroke-linecap:square;stroke-linejoin:round"
               id="path1104-2-5"
               cx="45.640625"
               cy="139.5677"
               r="1.3229166" />
          </g>
        </g>
        <g
           id="g1114-0"
           transform="translate(26.458333)">
          <rect
             style="fill:#b3b3b3;fill-opacity:1;stroke:none;stroke-width:0.264583;stroke-linecap:square;stroke-linejoin:round"
             id="rect1082-5"
             width="3.96875"
             height="10.583333"
             x="43.65625"
             y="130.96875" />
          <g
             id="g1108-5">
            <rect
               style="fill:#cccccc;fill-opacity:1;stroke:none;stroke-width:0.162023;stroke-linecap:square;stroke-linejoin:round"
               id="rect1082-4-6"
               width="3.96875"
               height="3.9687548"
               x="43.65625"
               y="137.58333" />
            <circle
               style="fill:#e6e6e6;fill-opacity:1;stroke:none;stroke-width:0.264583;stroke-linecap:square;stroke-linejoin:round"
               id="path1104-5"
               cx="45.640625"
               cy="139.5677"
               r="1.3229166" />
          </g>
        </g>
        <g
           id="g1114-2-5"
           transform="translate(33.072917)">
          <rect
             style="fill:#b3b3b3;fill-opacity:1;stroke:none;stroke-width:0.264583;stroke-linecap:square;stroke-linejoin:round"
             id="rect1082-7-5"
             width="3.96875"
             height="10.583333"
             x="43.65625"
             y="130.96875" />
          <g
             id="g1108-9-06">
            <rect
               style="fill:#cccccc;fill-opacity:1;stroke:none;stroke-width:0.162023;stroke-linecap:square;stroke-linejoin:round"
               id="rect1082-4-8-20"
               width="3.96875"
               height="3.9687548"
               x="43.65625"
               y="137.58333" />
            <circle
               style="fill:#e6e6e6;fill-opacity:1;stroke:none;stroke-width:0.264583;stroke-linecap:square;stroke-linejoin:round"
               id="path1104-2-8"
               cx="45.640625"
               cy="139.5677"
               r="1.3229166" />
          </g>
        </g>
        <g
           id="g1114-2-1-3"
           transform="translate(39.687501)">
          <rect
             style="fill:#b3b3b3;fill-opacity:1;stroke:none;stroke-width:0.264583;stroke-linecap:square;stroke-linejoin:round"
             id="rect1082-7-7-9"
             width="3.96875"
             height="10.583333"
             x="43.65625"
             y="130.96875" />
          <g
             id="g1108-9-0-4">
            <rect
               style="fill:#cccccc;fill-opacity:1;stroke:none;stroke-width:0.162023;stroke-linecap:square;stroke-linejoin:round"
               id="rect1082-4-8-2-2"
               width="3.96875"
               height="3.9687548"
               x="43.65625"
               y="137.58333" />
            <circle
               style="fill:#e6e6e6;fill-opacity:1;stroke:none;stroke-width:0.264583;stroke-linecap:square;stroke-linejoin:round"
               id="path1104-2-1-7"
               cx="45.640625"
               cy="139.5677"
               r="1.3229166" />
          </g>
        </g>
        <g
           id="g1114-2-0-6"
           transform="translate(46.302084)">
          <rect
             style="fill:#b3b3b3;fill-opacity:1;stroke:none;stroke-width:0.264583;stroke-linecap:square;stroke-linejoin:round"
             id="rect1082-7-4-3"
             width="3.96875"
             height="10.583333"
             x="43.65625"
             y="130.96875" />
          <g
             id="g1108-9-05-4">
            <rect
               style="fill:#cccccc;fill-opacity:1;stroke:none;stroke-width:0.162023;stroke-linecap:square;stroke-linejoin:round"
               id="rect1082-4-8-4-9"
               width="3.96875"
               height="3.9687548"
               x="43.65625"
               y="137.58333" />
            <circle
               style="fill:#e6e6e6;fill-opacity:1;stroke:none;stroke-width:0.264583;stroke-linecap:square;stroke-linejoin:round"
               id="path1104-2-5-3"
               cx="45.640625"
               cy="139.5677"
               r="1.3229166" />
          </g>
        </g>
        <text
           xml:space="preserve"
           style="font-size:2.82223px;line-height:1.25;font-family:Frutiger;-inkscape-font-specification:Frutiger;letter-spacing:0px;stroke-width:0.264583"
           x="47.090122"
           y="130.03229"
           id="text1307"><tspan
             sodipodi:role="line"
             id="tspan1305"
             x="47.090122"
             y="130.03229"
             style="stroke-width:0.264583">On</tspan></text>
        <rect
           style="fill:#ffffff;fill-opacity:1;stroke:none;stroke-width:0.187088;stroke-linecap:square;stroke-linejoin:round"
           id="rect1309"
           width="1.3229165"
           height="10.583326"
           x="39.6875"
           y="130.96875" />
      </g>
      <g
         id="g1419-7"
         transform="translate(70.114583,43.65625)">
        <rect
           style="fill:#ff0000;fill-opacity:1;stroke:none;stroke-width:0.251824;stroke-linecap:square;stroke-linejoin:round"
           id="rect1080-8"
           width="58.208328"
           height="18.520836"
           x="39.6875"
           y="127" />
        <g
           id="g1114-5">
          <rect
             style="fill:#b3b3b3;fill-opacity:1;stroke:none;stroke-width:0.264583;stroke-linecap:square;stroke-linejoin:round"
             id="rect1082-42"
             width="3.96875"
             height="10.583333"
             x="43.65625"
             y="130.96875" />
          <g
             id="g1108-1">
            <rect
               style="fill:#cccccc;fill-opacity:1;stroke:none;stroke-width:0.162023;stroke-linecap:square;stroke-linejoin:round"
               id="rect1082-4-9"
               width="3.96875"
               height="3.9687548"
               x="43.65625"
               y="137.58333" />
            <circle
               style="fill:#e6e6e6;fill-opacity:1;stroke:none;stroke-width:0.264583;stroke-linecap:square;stroke-linejoin:round"
               id="path1104-6"
               cx="45.640625"
               cy="139.5677"
               r="1.3229166" />
          </g>
        </g>
        <g
           id="g1114-2-9"
           transform="translate(6.6145833)">
          <rect
             style="fill:#b3b3b3;fill-opacity:1;stroke:none;stroke-width:0.264583;stroke-linecap:square;stroke-linejoin:round"
             id="rect1082-7-2"
             width="3.96875"
             height="10.583333"
             x="43.65625"
             y="130.96875" />
          <g
             id="g1108-9-08">
            <rect
               style="fill:#cccccc;fill-opacity:1;stroke:none;stroke-width:0.162023;stroke-linecap:square;stroke-linejoin:round"
               id="rect1082-4-8-7"
               width="3.96875"
               height="3.9687548"
               x="43.65625"
               y="137.58333" />
            <circle
               style="fill:#e6e6e6;fill-opacity:1;stroke:none;stroke-width:0.264583;stroke-linecap:square;stroke-linejoin:round"
               id="path1104-2-4"
               cx="45.640625"
               cy="139.5677"
               r="1.3229166" />
          </g>
        </g>
        <g
           id="g1114-2-1-8"
           transform="translate(13.229167)">
          <rect
             style="fill:#b3b3b3;fill-opacity:1;stroke:none;stroke-width:0.264583;stroke-linecap:square;stroke-linejoin:round"
             id="rect1082-7-7-2"
             width="3.96875"
             height="10.583333"
             x="43.65625"
             y="130.96875" />
          <g
             id="g1108-9-0-3">
            <rect
               style="fill:#cccccc;fill-opacity:1;stroke:none;stroke-width:0.162023;stroke-linecap:square;stroke-linejoin:round"
               id="rect1082-4-8-2-5"
               width="3.96875"
               height="3.9687548"
               x="43.65625"
               y="137.58333" />
            <circle
               style="fill:#e6e6e6;fill-opacity:1;stroke:none;stroke-width:0.264583;stroke-linecap:square;stroke-linejoin:round"
               id="path1104-2-1-2"
               cx="45.640625"
               cy="139.5677"
               r="1.3229166" />
          </g>
        </g>
        <g
           id="g1114-2-0-61"
           transform="translate(19.84375)">
          <rect
             style="fill:#b3b3b3;fill-opacity:1;stroke:none;stroke-width:0.264583;stroke-linecap:square;stroke-linejoin:round"
             id="rect1082-7-4-7"
             width="3.96875"
             height="10.583333"
             x="43.65625"
             y="130.96875" />
          <g
             id="g1108-9-05-0">
            <rect
               style="fill:#cccccc;fill-opacity:1;stroke:none;stroke-width:0.162023;stroke-linecap:square;stroke-linejoin:round"
               id="rect1082-4-8-4-7"
               width="3.96875"
               height="3.9687548"
               x="43.65625"
               y="137.58333" />
            <circle
               style="fill:#e6e6e6;fill-opacity:1;stroke:none;stroke-width:0.264583;stroke-linecap:square;stroke-linejoin:round"
               id="path1104-2-5-0"
               cx="45.640625"
               cy="139.5677"
               r="1.3229166" />
          </g>
        </g>
        <g
           id="g1114-0-5"
           transform="translate(26.458333)">
          <rect
             style="fill:#b3b3b3;fill-opacity:1;stroke:none;stroke-width:0.264583;stroke-linecap:square;stroke-linejoin:round"
             id="rect1082-5-1"
             width="3.96875"
             height="10.583333"
             x="43.65625"
             y="130.96875" />
          <g
             id="g1108-5-0">
            <rect
               style="fill:#cccccc;fill-opacity:1;stroke:none;stroke-width:0.162023;stroke-linecap:square;stroke-linejoin:round"
               id="rect1082-4-6-8"
               width="3.96875"
               height="3.9687548"
               x="43.65625"
               y="137.58333" />
            <circle
               style="fill:#e6e6e6;fill-opacity:1;stroke:none;stroke-width:0.264583;stroke-linecap:square;stroke-linejoin:round"
               id="path1104-5-7"
               cx="45.640625"
               cy="139.5677"
               r="1.3229166" />
          </g>
        </g>
        <g
           id="g1114-2-5-3"
           transform="translate(33.072917)">
          <rect
             style="fill:#b3b3b3;fill-opacity:1;stroke:none;stroke-width:0.264583;stroke-linecap:square;stroke-linejoin:round"
             id="rect1082-7-5-6"
             width="3.96875"
             height="10.583333"
             x="43.65625"
             y="130.96875" />
          <g
             id="g1108-9-06-9">
            <rect
               style="fill:#cccccc;fill-opacity:1;stroke:none;stroke-width:0.162023;stroke-linecap:square;stroke-linejoin:round"
               id="rect1082-4-8-20-8"
               width="3.96875"
               height="3.9687548"
               x="43.65625"
               y="137.58333" />
            <circle
               style="fill:#e6e6e6;fill-opacity:1;stroke:none;stroke-width:0.264583;stroke-linecap:square;stroke-linejoin:round"
               id="path1104-2-8-4"
               cx="45.640625"
               cy="139.5677"
               r="1.3229166" />
          </g>
        </g>
        <g
           id="g1114-2-1-3-9"
           transform="translate(39.687501)">
          <rect
             style="fill:#b3b3b3;fill-opacity:1;stroke:none;stroke-width:0.264583;stroke-linecap:square;stroke-linejoin:round"
             id="rect1082-7-7-9-2"
             width="3.96875"
             height="10.583333"
             x="43.65625"
             y="130.96875" />
          <g
             id="g1108-9-0-4-8">
            <rect
               style="fill:#cccccc;fill-opacity:1;stroke:none;stroke-width:0.162023;stroke-linecap:square;stroke-linejoin:round"
               id="rect1082-4-8-2-2-6"
               width="3.96875"
               height="3.9687548"
               x="43.65625"
               y="137.58333" />
            <circle
               style="fill:#e6e6e6;fill-opacity:1;stroke:none;stroke-width:0.264583;stroke-linecap:square;stroke-linejoin:round"
               id="path1104-2-1-7-4"
               cx="45.640625"
               cy="139.5677"
               r="1.3229166" />
          </g>
        </g>
        <g
           id="g1114-2-0-6-8"
           transform="translate(46.302084)">
          <rect
             style="fill:#b3b3b3;fill-opacity:1;stroke:none;stroke-width:0.264583;stroke-linecap:square;stroke-linejoin:round"
             id="rect1082-7-4-3-6"
             width="3.96875"
             height="10.583333"
             x="43.65625"
             y="130.96875" />
          <g
             id="g1108-9-05-4-4">
            <rect
               style="fill:#cccccc;fill-opacity:1;stroke:none;stroke-width:0.162023;stroke-linecap:square;stroke-linejoin:round"
               id="rect1082-4-8-4-9-3"
               width="3.96875"
               height="3.9687548"
               x="43.65625"
               y="137.58333" />
            <circle
               style="fill:#e6e6e6;fill-opacity:1;stroke:none;stroke-width:0.264583;stroke-linecap:square;stroke-linejoin:round"
               id="path1104-2-5-3-5"
               cx="45.640625"
               cy="139.5677"
               r="1.3229166" />
          </g>
        </g>
        <text
           xml:space="preserve"
           style="font-size:2.82223px;line-height:1.25;font-family:Frutiger;-inkscape-font-specification:Frutiger;letter-spacing:0px;stroke-width:0.264583"
           x="47.090122"
           y="130.03229"
           id="text1307-8"><tspan
             sodipodi:role="line"
             id="tspan1305-7"
             x="47.090122"
             y="130.03229"
             style="stroke-width:0.264583">On</tspan></text>
        <rect
           style="fill:#ffffff;fill-opacity:1;stroke:none;stroke-width:0.187088;stroke-linecap:square;stroke-linejoin:round"
           id="rect1309-2"
           width="1.3229165"
           height="10.583326"
           x="39.6875"
           y="130.96875" />
      </g>
      <g
         id="g1419-0"
         transform="translate(1.3229173,72.760417)">
        <rect
           style="fill:#ff0000;fill-opacity:1;stroke:none;stroke-width:0.251824;stroke-linecap:square;stroke-linejoin:round"
           id="rect1080-9"
           width="58.208328"
           height="18.520836"
           x="39.6875"
           y="127" />
        <g
           id="g1114-25">
          <rect
             style="fill:#b3b3b3;fill-opacity:1;stroke:none;stroke-width:0.264583;stroke-linecap:square;stroke-linejoin:round"
             id="rect1082-0"
             width="3.96875"
             height="10.583333"
             x="43.65625"
             y="130.96875" />
          <g
             id="g1108-4">
            <rect
               style="fill:#cccccc;fill-opacity:1;stroke:none;stroke-width:0.162023;stroke-linecap:square;stroke-linejoin:round"
               id="rect1082-4-2"
               width="3.96875"
               height="3.9687548"
               x="43.65625"
               y="137.58333" />
            <circle
               style="fill:#e6e6e6;fill-opacity:1;stroke:none;stroke-width:0.264583;stroke-linecap:square;stroke-linejoin:round"
               id="path1104-3"
               cx="45.640625"
               cy="139.5677"
               r="1.3229166" />
          </g>
        </g>
        <g
           id="g1114-2-8"
           transform="translate(6.6145833)">
          <rect
             style="fill:#b3b3b3;fill-opacity:1;stroke:none;stroke-width:0.264583;stroke-linecap:square;stroke-linejoin:round"
             id="rect1082-7-6"
             width="3.96875"
             height="10.583333"
             x="43.65625"
             y="130.96875" />
          <g
             id="g1108-9-9">
            <rect
               style="fill:#cccccc;fill-opacity:1;stroke:none;stroke-width:0.162023;stroke-linecap:square;stroke-linejoin:round"
               id="rect1082-4-8-48"
               width="3.96875"
               height="3.9687548"
               x="43.65625"
               y="137.58333" />
            <circle
               style="fill:#e6e6e6;fill-opacity:1;stroke:none;stroke-width:0.264583;stroke-linecap:square;stroke-linejoin:round"
               id="path1104-2-40"
               cx="45.640625"
               cy="139.5677"
               r="1.3229166" />
          </g>
        </g>
        <g
           id="g1114-2-1-5"
           transform="translate(13.229167)">
          <rect
             style="fill:#b3b3b3;fill-opacity:1;stroke:none;stroke-width:0.264583;stroke-linecap:square;stroke-linejoin:round"
             id="rect1082-7-7-4"
             width="3.96875"
             height="10.583333"
             x="43.65625"
             y="130.96875" />
          <g
             id="g1108-9-0-8">
            <rect
               style="fill:#cccccc;fill-opacity:1;stroke:none;stroke-width:0.162023;stroke-linecap:square;stroke-linejoin:round"
               id="rect1082-4-8-2-3"
               width="3.96875"
               height="3.9687548"
               x="43.65625"
               y="137.58333" />
            <circle
               style="fill:#e6e6e6;fill-opacity:1;stroke:none;stroke-width:0.264583;stroke-linecap:square;stroke-linejoin:round"
               id="path1104-2-1-6"
               cx="45.640625"
               cy="139.5677"
               r="1.3229166" />
          </g>
        </g>
        <g
           id="g1114-2-0-0"
           transform="translate(19.84375)">
          <rect
             style="fill:#b3b3b3;fill-opacity:1;stroke:none;stroke-width:0.264583;stroke-linecap:square;stroke-linejoin:round"
             id="rect1082-7-4-70"
             width="3.96875"
             height="10.583333"
             x="43.65625"
             y="130.96875" />
          <g
             id="g1108-9-05-1">
            <rect
               style="fill:#cccccc;fill-opacity:1;stroke:none;stroke-width:0.162023;stroke-linecap:square;stroke-linejoin:round"
               id="rect1082-4-8-4-6"
               width="3.96875"
               height="3.9687548"
               x="43.65625"
               y="137.58333" />
            <circle
               style="fill:#e6e6e6;fill-opacity:1;stroke:none;stroke-width:0.264583;stroke-linecap:square;stroke-linejoin:round"
               id="path1104-2-5-2"
               cx="45.640625"
               cy="139.5677"
               r="1.3229166" />
          </g>
        </g>
        <g
           id="g1114-0-53"
           transform="translate(26.458333)">
          <rect
             style="fill:#b3b3b3;fill-opacity:1;stroke:none;stroke-width:0.264583;stroke-linecap:square;stroke-linejoin:round"
             id="rect1082-5-5"
             width="3.96875"
             height="10.583333"
             x="43.65625"
             y="130.96875" />
          <g
             id="g1108-5-4">
            <rect
               style="fill:#cccccc;fill-opacity:1;stroke:none;stroke-width:0.162023;stroke-linecap:square;stroke-linejoin:round"
               id="rect1082-4-6-5"
               width="3.96875"
               height="3.9687548"
               x="43.65625"
               y="137.58333" />
            <circle
               style="fill:#e6e6e6;fill-opacity:1;stroke:none;stroke-width:0.264583;stroke-linecap:square;stroke-linejoin:round"
               id="path1104-5-2"
               cx="45.640625"
               cy="139.5677"
               r="1.3229166" />
          </g>
        </g>
        <g
           id="g1114-2-5-5"
           transform="translate(33.072917)">
          <rect
             style="fill:#b3b3b3;fill-opacity:1;stroke:none;stroke-width:0.264583;stroke-linecap:square;stroke-linejoin:round"
             id="rect1082-7-5-9"
             width="3.96875"
             height="10.583333"
             x="43.65625"
             y="130.96875" />
          <g
             id="g1108-9-06-6">
            <rect
               style="fill:#cccccc;fill-opacity:1;stroke:none;stroke-width:0.162023;stroke-linecap:square;stroke-linejoin:round"
               id="rect1082-4-8-20-4"
               width="3.96875"
               height="3.9687548"
               x="43.65625"
               y="137.58333" />
            <circle
               style="fill:#e6e6e6;fill-opacity:1;stroke:none;stroke-width:0.264583;stroke-linecap:square;stroke-linejoin:round"
               id="path1104-2-8-44"
               cx="45.640625"
               cy="139.5677"
               r="1.3229166" />
          </g>
        </g>
        <g
           id="g1114-2-1-3-6"
           transform="translate(39.687501)">
          <rect
             style="fill:#b3b3b3;fill-opacity:1;stroke:none;stroke-width:0.264583;stroke-linecap:square;stroke-linejoin:round"
             id="rect1082-7-7-9-4"
             width="3.96875"
             height="10.583333"
             x="43.65625"
             y="130.96875" />
          <g
             id="g1108-9-0-4-3">
            <rect
               style="fill:#cccccc;fill-opacity:1;stroke:none;stroke-width:0.162023;stroke-linecap:square;stroke-linejoin:round"
               id="rect1082-4-8-2-2-60"
               width="3.96875"
               height="3.9687548"
               x="43.65625"
               y="137.58333" />
            <circle
               style="fill:#e6e6e6;fill-opacity:1;stroke:none;stroke-width:0.264583;stroke-linecap:square;stroke-linejoin:round"
               id="path1104-2-1-7-3"
               cx="45.640625"
               cy="139.5677"
               r="1.3229166" />
          </g>
        </g>
        <g
           id="g1114-2-0-6-89"
           transform="translate(46.302084)">
          <rect
             style="fill:#b3b3b3;fill-opacity:1;stroke:none;stroke-width:0.264583;stroke-linecap:square;stroke-linejoin:round"
             id="rect1082-7-4-3-5"
             width="3.96875"
             height="10.583333"
             x="43.65625"
             y="130.96875" />
          <g
             id="g1108-9-05-4-6">
            <rect
               style="fill:#cccccc;fill-opacity:1;stroke:none;stroke-width:0.162023;stroke-linecap:square;stroke-linejoin:round"
               id="rect1082-4-8-4-9-7"
               width="3.96875"
               height="3.9687548"
               x="43.65625"
               y="137.58333" />
            <circle
               style="fill:#e6e6e6;fill-opacity:1;stroke:none;stroke-width:0.264583;stroke-linecap:square;stroke-linejoin:round"
               id="path1104-2-5-3-9"
               cx="45.640625"
               cy="139.5677"
               r="1.3229166" />
          </g>
        </g>
        <text
           xml:space="preserve"
           style="font-size:2.82223px;line-height:1.25;font-family:Frutiger;-inkscape-font-specification:Frutiger;letter-spacing:0px;stroke-width:0.264583"
           x="47.090122"
           y="130.03229"
           id="text1307-9"><tspan
             sodipodi:role="line"
             id="tspan1305-5"
             x="47.090122"
             y="130.03229"
             style="stroke-width:0.264583">On</tspan></text>
        <rect
           style="fill:#ffffff;fill-opacity:1;stroke:none;stroke-width:0.187088;stroke-linecap:square;stroke-linejoin:round"
           id="rect1309-3"
           width="1.3229165"
           height="10.583326"
           x="39.6875"
           y="130.96875" />
      </g>
      <rect
         style="fill:#000000;fill-opacity:1;stroke:none;stroke-width:0.222565;stroke-linecap:square;stroke-linejoin:round"
         id="rect1758"
         width="14.552074"
         height="14.552084"
         x="129.64584"
         y="202.40625" />
      <circle
         style="fill:#666666;fill-opacity:1;stroke:none;stroke-width:0.243585;stroke-linecap:square;stroke-linejoin:round"
         id="path1760"
         cx="136.92188"
         cy="209.6823"
         r="5.4806547" />
      <circle
         style="fill:#1a1a1a;fill-opacity:1;stroke:none;stroke-width:0.243585;stroke-linecap:square;stroke-linejoin:round"
         id="path1760-9"
         cx="137.58334"
         cy="210.53275"
         r="5.4806547" />
      <rect
         style="fill:#999999;fill-opacity:1;stroke:none;stroke-width:0.264583;stroke-linecap:square;stroke-linejoin:round"
         id="rect1782"
         width="2.6458333"
         height="1.3229166"
         x="127.00001"
         y="205.05208" />
      <rect
         style="fill:#999999;fill-opacity:1;stroke:none;stroke-width:0.264583;stroke-linecap:square;stroke-linejoin:round"
         id="rect1782-7"
         width="2.6458333"
         height="1.3229166"
         x="126.99999"
         y="212.98958" />
      <rect
         style="fill:#999999;fill-opacity:1;stroke:none;stroke-width:0.264583;stroke-linecap:square;stroke-linejoin:round"
         id="rect1782-7-8"
         width="2.6458333"
         height="1.3229166"
         x="144.19792"
         y="212.98958" />
      <rect
         style="fill:#999999;fill-opacity:1;stroke:none;stroke-width:0.264583;stroke-linecap:square;stroke-linejoin:round"
         id="rect1782-7-3"
         width="2.6458333"
         height="1.3229166"
         x="144.19792"
         y="205.05208" />
    </g>
    <g
       id="g1975"
       transform="translate(-6.6145838,-116.41669)">
      <g
         id="g1935">
        <rect
           style="fill:#333333;fill-opacity:1;stroke:none;stroke-width:0.264583;stroke-linecap:square;stroke-linejoin:round"
           id="rect1906"
           width="116.41666"
           height="31.75"
           x="52.916664"
           y="243.41666" />
        <rect
           style="fill:#000000;fill-opacity:1;stroke:none;stroke-width:0.216031;stroke-linecap:square;stroke-linejoin:round"
           id="rect1908"
           width="10.583332"
           height="31.75"
           x="52.916668"
           y="243.41667" />
        <rect
           style="fill:#000000;fill-opacity:1;stroke:none;stroke-width:0.216031;stroke-linecap:square;stroke-linejoin:round"
           id="rect1908-9"
           width="10.583332"
           height="31.75"
           x="158.75"
           y="243.41667" />
      </g>
      <rect
         style="fill:#0000ff;fill-opacity:1;stroke:none;stroke-width:0.232581;stroke-linecap:square;stroke-linejoin:round"
         id="rect1937"
         width="89.958321"
         height="26.458332"
         x="68.791679"
         y="246.0625" />
      <rect
         style="fill:#4d4d4d;fill-opacity:1;stroke:none;stroke-width:0.264583;stroke-linecap:square;stroke-linejoin:round"
         id="rect1939"
         width="5.2916665"
         height="10.583333"
         x="63.5"
         y="254.00002" />
    </g>
    <text
       xml:space="preserve"
       style="font-size:12.7px;line-height:1.25;font-family:Frutiger;-inkscape-font-specification:Frutiger;letter-spacing:0px;stroke-width:0.264583"
       x="90.147324"
       y="151.75742"
       id="text2123"><tspan
         sodipodi:role="line"
         id="tspan2121"
         x="90.147324"
         y="151.75742"
         style="font-style:normal;font-variant:normal;font-weight:normal;font-stretch:normal;font-size:12.7px;font-family:Arial;-inkscape-font-specification:Arial;stroke-width:0.264583">1.5 V AA</tspan></text>
    <g
       id="g1037"
       transform="translate(-5.2916666)">
      <g
         id="g1904"
         transform="translate(-5.2916667,-105.83333)">
        <rect
           style="fill:#333333;fill-opacity:1;stroke:none;stroke-width:0.264583;stroke-linecap:square;stroke-linejoin:round"
           id="rect1879"
           width="13.229166"
           height="7.9375"
           x="34.395836"
           y="209.02083" />
        <rect
           style="fill:#333333;fill-opacity:1;stroke:none;stroke-width:0.27326;stroke-linecap:square;stroke-linejoin:round"
           id="rect1879-9"
           width="21.166668"
           height="5.2916665"
           x="-38.227085"
           y="211.9959"
           transform="rotate(-14.980867)" />
        <rect
           style="fill:#0000ff;fill-opacity:1;stroke:none;stroke-width:0.285782;stroke-linecap:square;stroke-linejoin:round"
           id="rect1877"
           width="15.875001"
           height="18.520844"
           x="42.333332"
           y="203.72916" />
      </g>
      <text
         xml:space="preserve"
         style="font-size:4.93889px;line-height:1.25;font-family:Frutiger;-inkscape-font-specification:Frutiger;letter-spacing:0px;stroke-width:0.264583"
         x="8.6934528"
         y="101.86458"
         id="text2127"><tspan
           sodipodi:role="line"
           id="tspan2125"
           x="8.6934528"
           y="101.86458"
           style="font-style:normal;font-variant:normal;font-weight:normal;font-stretch:normal;font-size:4.93889px;font-family:Sans;-inkscape-font-specification:Sans;stroke-width:0.264583">On/Off</tspan></text>
    </g>
    <g
       id="g1054">
      <g
         id="g1835"
         transform="translate(37.041667,2.6458333)">
        <rect
           style="fill:#0044c5;fill-opacity:1;stroke:none;stroke-width:0.288323;stroke-linecap:square;stroke-linejoin:round"
           id="rect835"
           width="58.208332"
           height="50.270832"
           x="37.041668"
           y="31.75" />
        <rect
           style="fill:#000000;fill-opacity:1;stroke:none;stroke-width:0.218472;stroke-linecap:square;stroke-linejoin:round"
           id="rect835-6"
           width="52.916668"
           height="31.75"
           x="39.6875"
           y="39.6875" />
      </g>
      <circle
         style="fill:#ffffff;fill-opacity:1;stroke:none;stroke-width:0.264583;stroke-linecap:square;stroke-linejoin:round"
         id="path1837"
         cx="76.729164"
         cy="82.020836"
         r="1.984375" />
      <circle
         style="fill:#ffffff;fill-opacity:1;stroke:none;stroke-width:0.264583;stroke-linecap:square;stroke-linejoin:round"
         id="path1837-6"
         cx="129.64583"
         cy="82.020836"
         r="1.984375" />
      <circle
         style="fill:#ffffff;fill-opacity:1;stroke:none;stroke-width:0.264583;stroke-linecap:square;stroke-linejoin:round"
         id="path1837-4"
         cx="129.64583"
         cy="37.041668"
         r="1.984375" />
      <circle
         style="fill:#ffffff;fill-opacity:1;stroke:none;stroke-width:0.264583;stroke-linecap:square;stroke-linejoin:round"
         id="path1837-7"
         cx="76.729164"
         cy="37.041668"
         r="1.984375" />
      <text
         xml:space="preserve"
         style="font-size:4.9389px;line-height:1.25;font-family:Consolas;-inkscape-font-specification:Consolas;letter-spacing:0px;stroke-width:0.264583;fill:#ffffff;"
         x="81.64286"
         y="50.837799"
         id="text2131"><tspan
           sodipodi:role="line"
           id="tspan2129"
           x="81.64286"
           y="50.837799"
           style="stroke-width:0.264583;fill:#ffffff;">Hello World</tspan></text>
    </g>
    <text
       xml:space="preserve"
       style="font-size:4.9389px;line-height:1.25;font-family:Consolas;-inkscape-font-specification:Consolas;letter-spacing:0px;stroke-width:0.264583"
       x="171.03423"
       y="170.65625"
       id="text2135"><tspan
         sodipodi:role="line"
         id="tspan2133"
         x="171.03423"
         y="170.65625"
         style="font-style:normal;font-variant:normal;font-weight:normal;font-stretch:normal;font-family:Sans;-inkscape-font-specification:Sans;stroke-width:0.264583">8x DIP</tspan></text>
    <text
       xml:space="preserve"
       style="font-size:4.9389px;line-height:1.25;font-family:Consolas;-inkscape-font-specification:Consolas;letter-spacing:0px;stroke-width:0.264583"
       x="31.56101"
       y="198.62648"
       id="text2139"><tspan
         sodipodi:role="line"
         id="tspan2137"
         x="31.56101"
         y="198.62648"
         style="font-style:normal;font-variant:normal;font-weight:normal;font-stretch:normal;font-family:Arial;-inkscape-font-specification:Arial;stroke-width:0.264583">Value</tspan></text>
    <text
       xml:space="preserve"
       style="font-size:4.9389px;line-height:1.25;font-family:Consolas;-inkscape-font-specification:Consolas;letter-spacing:0px;stroke-width:0.264583"
       x="31.75"
       y="169.7113"
       id="text2139-3"><tspan
         sodipodi:role="line"
         id="tspan2137-9"
         x="31.75"
         y="169.7113"
         style="font-style:normal;font-variant:normal;font-weight:normal;font-stretch:normal;font-family:Arial;-inkscape-font-specification:Arial;stroke-width:0.264583">Register</tspan></text>
    <text
       xml:space="preserve"
       style="font-size:4.9389px;line-height:1.25;font-family:Consolas;-inkscape-font-specification:Consolas;letter-spacing:0px;stroke-width:0.264583"
       x="119.16764"
       y="200.92311"
       id="text2139-7"><tspan
         sodipodi:role="line"
         id="tspan2137-8"
         x="119.16764"
         y="200.92311"
         style="font-style:normal;font-variant:normal;font-weight:normal;font-stretch:normal;font-family:Arial;-inkscape-font-specification:Arial;stroke-width:0.264583">Write</tspan></text>
    <text
       xml:space="preserve"
       style="font-size:4.9389px;line-height:1.25;font-family:Consolas;-inkscape-font-specification:Consolas;letter-spacing:0px;stroke-width:0.264583"
       x="128.02695"
       y="96.461815"
       id="text1034"><tspan
         sodipodi:role="line"
         id="tspan1032"
         x="128.02695"
         y="96.461815"
         style="stroke-width:0.264583">ATsomething</tspan></text>
  </g>
</svg>
